…
    ## ── Column specification ────────────────────────────────────────────────────────
    ## Delimiter: ","
    ## chr (8): uid, victim_last, victim_first, victim_race, victim_sex, city, stat...
    ## dbl (4): reported_date, victim_age, lat, lon

    ## 
    ## ℹ Use `spec()` to retrieve the full column specification for this data.
    ## ℹ Specify the column types or set `show_col_types = FALSE` to quiet this message.

``` r
homicide_df %>%  count(city_state) 
```

    ## # A tibble: 51 × 2
    ##    city_state        n
    ##    <chr>         <int>
    ##  1 AlbuquerqueNM   378
    ##  2 AtlantaGA       973
    ##  3 BaltimoreMD    2827
    ##  4 Baton RougeLA   424
    ##  5 BirminghamAL    800
    ##  6 BostonMA        614
    ##  7 BuffaloNY       521
    ##  8 CharlotteNC     687
    ##  9 ChicagoIL      5535
    ## 10 CincinnatiOH    694
    ## # … with 41 more rows
…
